…
### Commits per Date

``` r
## 
cfp_github_commits() %>%
  collect() %>% # pull locally
  filter(grepl('cfp-data-pipeline', COMMENTS_URL, fixed=TRUE))  %>% 
  mutate(day_created = floor_date(COMMIT__AUTHOR__DATE, "day")) %>% # get day of creation
  select('_SDC_REPOSITORY', day_created) %>%
  count(day_created, sort=FALSE) %>%
  rename(Date = day_created, Commits = n)
```

    ## # A tibble: 55 x 2
    ##    Date                Commits
    ##    <dttm>                <int>
    ##  1 2019-12-30 00:00:00       3
    ##  2 2019-12-31 00:00:00       1
    ##  3 2020-01-15 00:00:00       1
    ##  4 2020-01-21 00:00:00       2
    ##  5 2020-01-22 00:00:00       4
    ##  6 2020-01-24 00:00:00       2
    ##  7 2020-01-25 00:00:00       1
    ##  8 2020-01-26 00:00:00       1
    ##  9 2020-01-27 00:00:00       1
    ## 10 2020-01-28 00:00:00       5
    ## # ... with 45 more rows
…
